{
  "version": 1,
  "notes": "",
  "documentation": "\"This file is a QMK Configurator export. You can import this at <https://config.qmk.fm>. It can also be used directly with QMK's source code.\n\nTo setup your QMK environment check out the tutorial: <https://docs.qmk.fm/#/newbs>\n\nYou can convert this file to a keymap.c using this command: `qmk json2c {keymap}`\n\nYou can compile this keymap using this command: `qmk compile {keymap}`\"\n",
  "keyboard": "ferris/sweep",
  "keymap": "benvallack",
  "layout": "LAYOUT_split_3x5_2",
  "layers": [
    [
      "KC_A",
      "KC_Z",
      "KC_E",
      "KC_R",
      "KC_T",
      "KC_Y",
      "KC_U",
      "KC_I",
      "KC_O",
      "KC_P",
      "KC_Q",
      "KC_S",
      "LALT(KC_D)",
      "LGUI_T(KC_F)",
      "KC_G",
      "KC_H",
      "KC_J",
      "KC_K",
      "KC_L",
      "KC_M",
      "KC_W",
      "KC_X",
      "KC_C",
      "KC_V",
      "KC_B",
      "KC_N",
      "KC_PCMM",
      "KC_PDOT",
      "KC_SCLN",
      "KC_COLN",
      "MEH_T(KC_SPC)",
      "OSM(MOD_LSFT)",
      "OSM(MOD_RCTL)",
      "TO(1)"
    ],
    [
      "KC_ESC",
      "KC_AT",
      "LSFT(KC_3)",
      "ANY(TD(DANCE_31))",
      "KC_PERC",
      "KC_CIRC",
      "KC_AMPR",
      "KC_ASTR",
      "KC_SCLN",
      "KC_BSPC",
      "KC_TAB",
      "KC_EQL",
      "LALT(KC_RBRC)",
      "ANY(LALT(LSFT(KC_RBRACKET)))",
      "ANY(TD(DANCE_32))",
      "ANY(TD(BKSL_HME))",
      "LSFT(KC_LBRC)",
      "LSFT(KC_RBRC)",
      "ANY(TD(PIPE_END))",
      "KC_ENT",
      "KC_TILD",
      "ANY(TD(DANCE_33))",
      "LALT(KC_LBRC)",
      "ANY(LALT(LSFT(KC_LBRACKET)))",
      "KC_DQUO",
      "KC_LBRC",
      "KC_LPRN",
      "KC_RPRN",
      "KC_RBRC",
      "TO(3)",
      "TO(0)",
      "OSM(MOD_LSFT)",
      "KC_RALT",
      "TO(2)"
    ],
    [
      "KC_ESC",
      "KC_MPLY",
      "KC_MPRV",
      "KC_MNXT",
      "LSFT(KC_MINS)",
      "KC_MINS",
      "KC_7",
      "KC_8",
      "KC_9",
      "KC_TRNS",
      "KC_TAB",
      "KC_TRNS",
      "KC_VOLD",
      "KC_VOLU",
      "LSFT(KC_EQL)",
      "KC_EQL",
      "KC_4",
      "KC_5",
      "KC_6",
      "KC_ENT",
      "QK_BOOT",
      "KC_PAST",
      "KC_BRID",
      "KC_BRIU",
      "KC_PDOT",
      "KC_0",
      "KC_1",
      "KC_2",
      "KC_3",
      "KC_TRNS",
      "TO(0)",
      "KC_LGUI",
      "KC_RALT",
      "TO(2)"
    ],
    [
      "ANY(TD(DANCE_54))",
      "KC_WH_L",
      "KC_MS_U",
      "KC_WH_R",
      "ANY(TD(DANCE_55))",
      "LGUI(KC_LBRC)",
      "ANY(LCTL(LSFT(KC_TAB)))",
      "RCTL(KC_TAB)",
      "LGUI(KC_RBRC)",
      "KC_TRNS",
      "ANY(TD(DANCE_56))",
      "KC_MS_L",
      "KC_MS_D",
      "KC_MS_R",
      "ANY(MT(MOD_LGUI,KC_DEL))",
      "ANY(TD(DANCE_60))",
      "ANY(MT(MOD_RGUI,KC_DOWN))",
      "ANY(MT(MOD_RALT,KC_UP))",
      "ANY(TD(DANCE_63))",
      "KC_ENT",
      "ANY(TD(DANCE_58))",
      "KC_BTN2",
      "KC_WH_U",
      "KC_WH_D",
      "KC_TRNS",
      "KC_BTN1",
      "KC_ACL0",
      "KC_ACL1",
      "KC_ACL2",
      "KC_NO",
      "TO(0)",
      "KC_TRNS",
      "KC_RALT",
      "TO(1)"
    ]
  ],
  "author": ""
}